// Jest Snapshot v1, https://goo.gl/fbAQLP

exports[`AppPlusButton.vue Should to correct render plus button 1`] = `<router-link-stub tag="button" to="/record" aria-label="Add new record" class="button" name="buttonFade">+</router-link-stub>`;

exports[`AppPlusButton.vue Shouldn't to correct render plus button 1`] = `undefined`;
